{
	"HTTP_HOST":"https://hdbank-vc-uat.mmvpay.com",
	"HTTP_HOST_ADMINET":"https://hdbank-ad-uat.mmvpay.com",
	"HTTP_HOST_TELERIVET":"https://telerivet.com/u/Q3CUZ6G7C6/projects",
	"EXISTING_EMAIL":"matchmoveexistinguser@gmail.com",
	"NEW_EMAIL":"matchmovenewuser@gmail.com",
	"VCARD_PASSWORD":"Mmg@123456",
	"GMAIL_PASSWORD":"mmg123456",
	"ACCOUNT_INFO":{"FIRST_NAME":"auto", "LAST_NAME":"scripts", "PREFERRED_NAME": "autoscripts cards"},
	"TELERIVET_USERNAME":"tester@matchmove.com",
	"TELERIVET_PASSWORD":"mmg123456",
	"TELERIVET_PROJECT_NAME":"SG FlexM",
	"TELERIVET_SUBSTRINGS":{"fIndex":54, "leng":6},
	"TELERIVET_INTEGRATED":"SG FlexM",
	"MOBILE_NUMBER_AREA_CODE":"+84",
	"MOBILE_NUMBER_FIRST_2_DIGIT":"0914",
	"MOBILE_NUMBER_LENGTH":"6",
	"MOBILE_RANDOM":"true",
	"MOBILE_NUMBER_SAMPLE":{"input":"32153215", "expected":"3215 321 5"},
	"LOGIN_PAGE":{"redirectionUrl":"/auth/login"},
	"SIGNUP_PAGE":{"redirectionUrl":"/auth/create/", "tncEnabled":"true", "nationalityEnabled": "false", "nationalityDefault":"Choose Nationality"},
	"RECOVER_PASSWORD_PAGE":{"redirectionUrl":"/wallet/password/recover","":""},
	"OFFER_PAGE":{"redirectionUrl":"/wallet/offers/list"},
	"GET_ANOTHER_CARD_PAGE":{"redirectionUrl":"/wallet/card/new", "preKYC":"true"},
	"SUSPEND_PAGE":{"redirectionUrl":"/wallet/suspend", "preKYC":"true", "allowNationalityType": "false"},
	"DASHBOARD_PAGE":{"redirectionUrl":"/wallet/home", "preKYC":"true"},
	"TOPUP_PAGE":{"redirectionUrl":"/wallet/topup/select", "preKYC":"true"},
	"SEND_PAGE":{"redirectionUrl":"/wallet/send/select", "preKYC":"true"},
	"CLAIM_PAGE":{"redirectionUrl":"/wallet/fund/claim", "preKYC":"true"},
	"HISTORY_PAGE":{"redirectionUrl":"/wallet/transaction", "preKYC":"true", "walletName":"Muthoot Blue Edge Inner Circle Wallet", "cardName":"Muthoot Mastercard", "isCardincludedinDropDown":"false"},
	"ACCOUNTS_PAGE":
									{"redirectionUrl":"/wallet/details/list", "preKYC":"true", "min_age":"0", "nricUsed":"false", "titleItem":4, "section":13, "svgINEditAddress":"false",

										"personalInfoEnabled":{"title":"true", "gender":"true", "dateOfBirth":"true", "identityInfo":"true", "country":"true"},
										"residentialEnabled":{"address_1":"true", "address_2": "true", "postalCode":"true", "city":"true", "state":"true"},
										"billingEnabled":{"address_1":"true", "address_2": "true", "country":"true", "postalCode":"true", "city":"false", "state":"false"},

										"personalInfovalues":{"title":"Mrs", "gender":"female", "dateOfBirth":"1975-01-10", "identityInfo":"M", "country":"India"},
										"residentialValues":{"address_1":"Telok", "address_2": "Ayer", "postalCode":"321507", "city":"mumbai", "state":"india state"},
										"billingValues":{"address_1":"TelokB", "address_2": "AyerB", "country":"Singapore", "postalCode":"321507", "city":"mumbaiB", "state":"india stateB"},

										"changePersonalInfovalues":{"title":"Mr", "gender":"male", "dateOfBirth":"1975-10-01", "identityInfo":"K", "country":"Singapore"},
										"changeResidentialValues":{"address_1":"changeTelok", "address_2": "changeAyer", "postalCode":"705123", "city":"change city", "state":"change state"},
										"changeBillingValues":{"address_1":"changeTelokB", "address_2": "changeAyerB", "country":"Singapore", "postalCode":"705123"}
									},
	"NOTIFICATION_PAGE":{"redirectionUrl":"/wallet/notification", "preKYC":"true", "newsItem":"true", "withLanguage":"true"},
	"ADMINET_PAGE":{"redirectionUrl":"/wallet/notification", "preKYC":"true", "emailAccount":"mike@matchmove.com", "adPassword":"mmg123456"},
	"REACTIVATE_PAGE":{"preKYC":"true"},
	"HELPPOPUP_PAGE":{"isSVG":"false"},

	"BASE_CURRENCY": "INR"
}
